^C:\USERS\LOODY\DOCUMENTS\VISUAL STUDIO 2010\PROJECTS\SSS\SSS\FORM1.RESX|C:\USERS\LOODY\DOCUMENTS\VISUAL STUDIO 2010\PROJECTS\SSS\SSS\MY PROJECT\RESOURCES.RESX
C:\USERS\LOODY\DOCUMENTS\VISUAL STUDIO 2010\PROJECTS\SSS\SSS\OBJ\X86\DEBUG\SSS.FORM1.RESOURCES
C:\USERS\LOODY\DOCUMENTS\VISUAL STUDIO 2010\PROJECTS\SSS\SSS\OBJ\X86\DEBUG\SSS.RESOURCES.RESOURCES
